20 12
0 1 2 3 4 5 6 7 8 9 10 11 12 13 14 15 15 15 15 15
0 0 0 0 0 0 0 0 0 9 9 9 9 9 9 9 9 9 9 9
0 1 1 1 1 1 1 1 0 8 8 8 8 8 8 8 8 8 8 8
0 1 2 2 2 2 2 1 0 7 7 7 7 7 7 7 7 7 7 7
0 1 2 3 3 3 2 1 0 6 6 6 6 6 6 6 6 6 6 6
0 1 2 3 4 3 2 1 0 5 5 5 5 5 5 5 5 5 5 5
0 1 2 3 3 3 2 1 0 6 6 6 6 6 6 6 6 6 6 6
0 1 2 2 2 2 2 1 0 7 7 7 7 7 7 7 7 7 7 7
0 1 1 1 1 1 1 1 0 8 8 8 8 8 8 8 8 8 8 8
0 0 0 0 0 0 0 0 0 9 9 9 9 9 9 9 9 9 9 9
15 14 13 12 11 10 9 8 7 6 5 4 3 2 1 0 0 0 0 0